{
    "KPackageStructure": "KPackage/GenericQML",
    "KPlugin": {
        "Authors": [
            {
                "Email": "devin@kde.org",
                "Name": "Devin Lin",
                "Name[az]": "Devin Lin",
                "Name[ca@valencia]": "Devin Lin",
                "Name[ca]": "Devin Lin",
                "Name[cs]": "Devin Lin",
                "Name[de]": "Devin Lin",
                "Name[en_GB]": "Devin Lin",
                "Name[eo]": "Devin Lin",
                "Name[es]": "Devin Lin",
                "Name[eu]": "Devin Lin",
                "Name[fi]": "Devin Lin",
                "Name[fr]": "Devin Lin",
                "Name[ia]": "Devin Lin",
                "Name[is]": "Devin Lin",
                "Name[it]": "Devin Lin",
                "Name[ka]": "Devin Lin",
                "Name[ko]": "Devin Lin",
                "Name[nl]": "Devin Lin",
                "Name[nn]": "Devin Lin",
                "Name[pa]": "ਡੇਵਿਨ ਲਿਨ",
                "Name[pl]": "Devin Lin",
                "Name[pt]": "Devin Lin",
                "Name[pt_BR]": "Devin Lin",
                "Name[ru]": "Devin Lin",
                "Name[sl]": "Devin Lin",
                "Name[sv]": "Devin Lin",
                "Name[tr]": "Devin Lin",
                "Name[uk]": "Devin Lin",
                "Name[x-test]": "xxDevin Linxx",
                "Name[zh_CN]": "Devin Lin"
            }
        ],
        "Description": "Cellular initialstart module for Plasma Mobile",
        "Description[ca@valencia]": "Mòdul de començament inicial del mòbil per a Plasma Mobile",
        "Description[ca]": "Mòdul de començament inicial del mòbil per al Plasma Mobile",
        "Description[en_GB]": "Cellular initial start module for Plasma Mobile",
        "Description[eo]": "Ĉela komenca startmodulo por Plasma Mobile",
        "Description[es]": "Módulo del primer arranque del móvil para Plasma Mobile",
        "Description[eu]": "Mugikorreko sarearen hasierako abioa Plasma Mugikorrerako",
        "Description[fi]": "Matkapuhelinverkon pika-aloitusmoduuli Plasma Mobileen",
        "Description[fr]": "Module « initialstart » de réseau cellulaire pour Plasma Mobile",
        "Description[ia]": "Modulo initialstart de Cellular per Plasma Mobile",
        "Description[it]": "Modulo di avvio iniziale della rete cellulare per Plasma Mobile",
        "Description[ka]": "Plasma Mobile-ის ფიჭური სწრაფი გაშვების მოდული",
        "Description[nl]": "Initiële cellulaire startmodule voor Plasma Mobile",
        "Description[pa]": "ਪਲਾਜ਼ਮਾ ਮੋਬਾਈਲ ਲਈ ਸੈਲੂਲਰ ਸ਼ੁਰੂਆਤੀ ਮੋਡੀਊਲ",
        "Description[pl]": "Komórkowy człon początków w Przenośnej Plazmie",
        "Description[sl]": "Modul začetnega celičnega zagona za Plasma Mobile",
        "Description[tr]": "Plasma Cep için hücresel ayar başlangıç modülü",
        "Description[uk]": "Модуль стільникової мережі початкового запуску для мобільної Плазми",
        "Description[x-test]": "xxCellular initialstart module for Plasma Mobilexx",
        "Id": "org.kde.plasma.mobileinitialstart.cellular",
        "License": "GPL-2.0+",
        "Name": "Cellular",
        "Name[ca@valencia]": "Mòbil",
        "Name[ca]": "Mòbil",
        "Name[cs]": "Mobilní",
        "Name[en_GB]": "Cellular",
        "Name[eo]": "Ĉela",
        "Name[es]": "Móvil",
        "Name[eu]": "Mugikorra",
        "Name[fi]": "Matkapuhelinverkko",
        "Name[fr]": "Réseau cellulaire",
        "Name[ia]": "Cellular",
        "Name[it]": "Rete cellulare",
        "Name[ka]": "ფიჭური ქსელი",
        "Name[nl]": "Cellulair",
        "Name[pa]": "ਸੈਲੂਲਰ",
        "Name[pl]": "Komórkowe",
        "Name[sl]": "Celično",
        "Name[tr]": "Hücresel",
        "Name[uk]": "Стільниковий",
        "Name[x-test]": "xxCellularxx",
        "ServiceTypes": [
            "KPackage/GenericQML"
        ],
        "Version": "0.1",
        "Website": "https://kde.org"
    }
}
