{
    "KPackageStructure": "KPackage/GenericQML",
    "KPlugin": {
        "Authors": [
            {
                "Email": "skilvingr@gmail.com",
                "Name": "Yari Polla",
                "Name[ca@valencia]": "Yari Polla",
                "Name[ca]": "Yari Polla",
                "Name[cs]": "Yari Polla",
                "Name[en_GB]": "Yari Polla",
                "Name[eo]": "Yari Polla",
                "Name[es]": "Yari Polla",
                "Name[eu]": "Yari Polla",
                "Name[fi]": "Yari Polla",
                "Name[fr]": "Yari Polla",
                "Name[ia]": "Yari Polla",
                "Name[it]": "Yari Polla",
                "Name[ka]": "Yari Polla",
                "Name[nl]": "Yari Polla",
                "Name[nn]": "Yari Polla",
                "Name[pl]": "Yari Polla",
                "Name[sl]": "Yari Polla",
                "Name[tr]": "Yari Polla",
                "Name[uk]": "Yari Polla",
                "Name[x-test]": "xxYari Pollaxx"
            }
        ],
        "Description": "Hotspot quick setting for Plasma Mobile",
        "Description[ca@valencia]": "Configuració ràpida del punt d'accés per a Plasma Mobile",
        "Description[ca]": "Configuració ràpida del punt d'accés per al Plasma Mobile",
        "Description[cs]": "Rychlé nastavení Plasma pro mobilní telefony",
        "Description[en_GB]": "Hotspot quick setting for Plasma Mobile",
        "Description[eo]": "Hotspot rapida agordo por Plasma Mobile",
        "Description[es]": "Ajuste rápido del punto de acceso para Plasma Mobile",
        "Description[eu]": "Berogunearen ezarpen azkarra Plasma Mugikorrerako",
        "Description[fi]": "Tukiaseman pika-asetus Plasma Mobileen",
        "Description[fr]": "Configuration rapide pour les points d'accès sous Plasma Mobile",
        "Description[ia]": "Preferentia rapide de hotspot per Plasma Mobile",
        "Description[it]": "Impostazione rapida dell'hotspot per Plasma Mobile",
        "Description[ka]": "ჰოტსპოტის სწრაფი მორგების პარამეტრი Plasma Mobile-სთვის",
        "Description[nl]": "Hotspot snelle instelling voor Plasma Mobile",
        "Description[nn]": "Snøgginnstilling for trådlaussonar for Plasma Mobile",
        "Description[pa]": "ਪਲਾਜ਼ਮਾ ਮੋਬਾਈਲ ਲਈ ਹਾਟਸਪਾਟ ਫ਼ੌਰੀ ਸੈਟਿੰਗ",
        "Description[pl]": "Szybkie włączanie hotspotu w Przenośnej Plazmie",
        "Description[pt_BR]": "Configurações rápidas do ponto de acesso para o Plasma Mobile",
        "Description[sl]": "Hitre nastavitve vroče točke za Plasma Mobile",
        "Description[tr]": "Plasm Mobile erişim noktası tez ayarı",
        "Description[uk]": "Швидке налаштовування точки доступу для Мобільної Плазми",
        "Description[x-test]": "xxHotspot quick setting for Plasma Mobilexx",
        "Icon": "network-wireless-hotspot",
        "Id": "org.kde.plasma.quicksetting.hotspot",
        "License": "GPL-2.0+",
        "Name": "Hotspot",
        "Name[ca@valencia]": "Punt d'accés",
        "Name[ca]": "Punt d'accés",
        "Name[cs]": "Hotspot",
        "Name[en_GB]": "Hotspot",
        "Name[eo]": "Hotspot",
        "Name[es]": "Punto de acceso",
        "Name[eu]": "Berogunea",
        "Name[fi]": "Tukiasema",
        "Name[fr]": "Points d'accès",
        "Name[ia]": "Hotspot",
        "Name[it]": "Hotspot",
        "Name[ka]": "ჰოტსპოტი",
        "Name[nl]": "Hotspot",
        "Name[nn]": "Trådlaussone",
        "Name[pa]": "ਹਾਟਸਪਾਟ",
        "Name[pl]": "Hotspot",
        "Name[pt_BR]": "Ponto de acesso",
        "Name[sl]": "Vroča točka",
        "Name[tr]": "Erişim Noktası",
        "Name[uk]": "Точка доступу",
        "Name[x-test]": "xxHotspotxx",
        "Version": "0.1",
        "Website": "https://kde.org"
    }
}
