{
    "KPackageStructure": "KPackage/GenericQML",
    "KPlugin": {
        "Authors": [
            {
                "Email": "devin@kde.org",
                "Name": "Devin Lin",
                "Name[az]": "Devin Lin",
                "Name[ca@valencia]": "Devin Lin",
                "Name[ca]": "Devin Lin",
                "Name[cs]": "Devin Lin",
                "Name[de]": "Devin Lin",
                "Name[en_GB]": "Devin Lin",
                "Name[eo]": "Devin Lin",
                "Name[es]": "Devin Lin",
                "Name[eu]": "Devin Lin",
                "Name[fi]": "Devin Lin",
                "Name[fr]": "Devin Lin",
                "Name[ia]": "Devin Lin",
                "Name[is]": "Devin Lin",
                "Name[it]": "Devin Lin",
                "Name[ka]": "Devin Lin",
                "Name[ko]": "Devin Lin",
                "Name[nl]": "Devin Lin",
                "Name[nn]": "Devin Lin",
                "Name[pa]": "ਡੇਵਿਨ ਲਿਨ",
                "Name[pl]": "Devin Lin",
                "Name[pt]": "Devin Lin",
                "Name[pt_BR]": "Devin Lin",
                "Name[ru]": "Devin Lin",
                "Name[sl]": "Devin Lin",
                "Name[sv]": "Devin Lin",
                "Name[tr]": "Devin Lin",
                "Name[uk]": "Devin Lin",
                "Name[x-test]": "xxDevin Linxx",
                "Name[zh_CN]": "Devin Lin"
            }
        ],
        "Description": "Quick setting to toggle do not disturb mode for Plasma Mobile",
        "Description[ca@valencia]": "Configuració ràpida per a canviar el mode no destorbar per a Plasma Mobile",
        "Description[ca]": "Configuració ràpida per canviar el mode no destorbar per al Plasma Mobile",
        "Description[en_GB]": "Quick setting to toggle do not disturb mode for Plasma Mobile",
        "Description[eo]": "Rapida agordo por ŝanĝi ne ĝenu reĝimon por Plasma Mobile",
        "Description[es]": "Ajuste rápido para cambiar el modo «no molestar» para Plasma Mobile",
        "Description[eu]": "«Zaratarik ez» modua txandakatzeko ezarpen azkarra Plasma Mugikorrerako",
        "Description[fi]": "Häiriöttömän tilan pika-asetus Plasma Mobileen",
        "Description[fr]": "Configuration rapide pour basculer ou non en mode « Ne pas déranger » pour Plasma Mobile",
        "Description[ia]": "Preferentia rapide de commutar modo de non disturba per Plasma Mobile",
        "Description[it]": "Impostazione rapida per attivare o disattivare la modalità non disturbare per Plasma Mobile",
        "Description[ka]": "არ-შემაწუხო რეჟიმის გადართვის სწრაფი მორგების პარამეტრი Plasma Mobile-სთვის",
        "Description[nl]": "Snelle instelling om modus niet storen om te schakelen voor Plasma Mobile",
        "Description[nn]": "Snøgginnstilling for «ikkje forstyrr»-modus for Plasma Mobile",
        "Description[pa]": "ਪਲਾਜ਼ਮਾ ਮੋਬਾਈਲ ਲਈ ਤੰਗ ਨਾ ਕਰੋ ਬਦਲਣ ਢੰਗ ਲਈ ਫ਼ੌਰੀ ਸੈਟਿੰਗ",
        "Description[pl]": "Szybkie wł./wył. trybu nie-przeszkadzać w Przenośnej Plazmie",
        "Description[pt]": "Configuração rápida para activar/desactivar o modo 'não incomodar' do Plasma Mobile",
        "Description[ru]": "Быстрое включение или отключение режима «не беспокоить» для Plasma Mobile",
        "Description[sl]": "Hitre nastavitve za preklop v način Ne moti za Plasma Mobile",
        "Description[tr]": "Plasma Cep rahatsız etme kipini aç/kapat tez ayarı",
        "Description[uk]": "Швидке встановлення режиму «не турбувати» для Мобільної Плазми",
        "Description[x-test]": "xxQuick setting to toggle do not disturb mode for Plasma Mobilexx",
        "Description[zh_CN]": "Plasma Mobile 的勿扰模式快捷设置",
        "Icon": "notifications",
        "Id": "org.kde.plasma.quicksetting.donotdisturb",
        "License": "GPL",
        "Name": "Do Not Disturb",
        "Name[ca@valencia]": "No destorbar",
        "Name[ca]": "No destorbar",
        "Name[cs]": "Nerušit",
        "Name[en_GB]": "Do Not Disturb",
        "Name[eo]": "Ne ĝeni",
        "Name[es]": "No molestar",
        "Name[eu]": "Zatarik ez",
        "Name[fi]": "Älä häiritse",
        "Name[fr]": "Ne pas déranger",
        "Name[ia]": "Non disturba",
        "Name[is]": "Ekki ónáða",
        "Name[it]": "Non disturbare",
        "Name[ka]": "არ შემაწუხო",
        "Name[ko]": "방해하지 마시오",
        "Name[nl]": "Niet storen",
        "Name[nn]": "Ikkje forstyrr",
        "Name[pa]": "ਤੰਗ ਨਾ ਕਰੋ",
        "Name[pl]": "Nie przeszkadzać",
        "Name[pt]": "Não Incomodar",
        "Name[pt_BR]": "Não perturbe",
        "Name[ru]": "Не беспокоить",
        "Name[sl]": "Ne moti",
        "Name[sv]": "Stör ej",
        "Name[tr]": "Rahatsız Etme",
        "Name[uk]": "Не турбувати",
        "Name[x-test]": "xxDo Not Disturbxx",
        "Name[zh_CN]": "勿扰模式",
        "Version": "0.1",
        "Website": "https://kde.org"
    }
}
